{
    "antifeatures": {
        "Ads": "Ta aplikacja zawiera reklamy",
        "DisabledAlgorithm": "Ta aplikacja posiada słabą sygnaturę bezpieczeństwa",
        "KnownVuln": "Ta aplikacja ma znaną podatność bezpieczeństwa",
        "NoSourceSince": "Kod źródłowy nie jest już dostępny, nie są możliwe aktualizacje.",
        "NonFreeAdd": "Ta aplikacja promuje niewolne dodatki",
        "NonFreeAssets": "Ta aplikacja zawiera niewolną zawartość",
        "NonFreeDep": "Ta aplikacja wymaga innych, niewolnych aplikacji",
        "NonFreeNet": "Ta aplikacja promuje niewolne usługi sieciowe",
        "Tracking": "Ta aplikacja śledzi i raportuje Twoją aktywność",
        "UpstreamNonFree": "Upstreamowy kod źródłowy nie jest w pełni wolny"
    },
    "index": {
        "download_fdroid": "Pobierz aplikację F-Droid",
        "gpg_signature": "Podpis PGP",
        "introduction": "F-Droid jest instalowalnym katalogiem Wolnego i Otwartego Oprogramowania (ang. Free and Open Source Software – FOSS) dla platformy systemowej Android. Aplikacja kliencka ułatwia przeglądanie, instalację\ni śledzenie uaktualnień na twoim urządzeniu.",
        "screenshot": "Zrzut ekranu aplikacji F-Droid dla systemu Android",
        "title": "Czym jest F-Droid?"
    },
    "navigation": {
        "about": "O projekcie",
        "browse": "Przeglądaj",
        "contribute": "Przyczyń się do rozwoju F-Droid",
        "documentation": "Dokumentacja",
        "forum": "Forum",
        "issues": "Kwestie problemowe",
        "news": "Aktualności"
    },
    "package": {
        "anti_features": "Anty-Funkcje",
        "anti_features_warning": "Ta aplikacja ma funkcje, które mogą Ci się nie podobać.",
        "author": "Autor",
        "build_metadata": "Metadane kompilacji",
        "changelog": "Dziennik zmian",
        "donate": "Złóż darowiznę",
        "download": "Pobierz [file_extension]",
        "flattr": "Flattr",
        "gpg_signature": "Podpis PGP",
        "issue_tracker": "System śledzenia błędów",
        "liberapay": "Liberapay",
        "license": "Licencja",
        "minimum_android_version": "Ta wersja F-Droid wymaga Android [android_version] lub nowszej wersji tego systemu.",
        "new_in_version": "Nowości w wersji [latest_version]",
        "packages": "Pakiety",
        "permissions": "Uprawnienia",
        "signed_by_developer": "Podpisana i skompilowana przez twórcę oprogramowania.",
        "signed_by_fdroid": "Podpisana i skompilowana przez F-Droid; gwarantuje zgodność z <a href=\"[source_code_url]\">tą paczką kodu źródłowego</a>.",
        "source_code": "Kod źródłowy",
        "suggest_downloading_via_fdroid": "Chociaż poniżej masz możliwość pobrania plików APK, powinieneś być jednak świadomy tego, że instalując F-Droid w ten sposób — nie będziesz informowany o aktualizacjach. Jest to mniej bezpieczny sposób pobierania tej aplikacji. Zamiast tego, zalecamy pobranie klienta F-Droid, a następnie instalację F-Droid za jego pomocą.",
        "technical_info": "Informacje techniczne",
        "translation": "Tłumaczenie",
        "version_info": "<b>Wersja [package_version]</b> ([package_version_code]) - Dodana do [package_added_date]",
        "website": "Witryna internetowa"
    },
    "permissions": {
        "permdesc_acceptHandovers": "Zezwala na kontynuowanie przez aplikację połączenia rozpoczętego w innej aplikacji.",
        "permdesc_accessCoarseLocation": "Ta aplikacja może określać Twoją lokalizację na podstawie źródeł sieciowych, takich jak stacje bazowe i sieci Wi-Fi. Te usługi lokalizacyjne muszą być włączone i dostępne na telefonie, by aplikacja mogła z nich korzystać.",
        "permdesc_accessDrmCertificates": "Zezwala aplikacji na dodanie i używanie certyfikatów DRM. Nieprzeznaczone dla zwykłych aplikacji.",
        "permdesc_accessFineLocation": "Ta aplikacja może określać Twoją lokalizację na podstawie GPS-a lub sieciowych źródeł lokalizacji, takich jak stacje bazowe i sieci Wi-Fi. Te usługi lokalizacyjne muszą być włączone i dostępne na telefonie, by aplikacja mogła z nich korzystać. Może to zwiększyć zużycie baterii.",
        "permdesc_accessImsCallService": "Zezwala aplikacji na korzystanie z usługi komunikatora, by nawiązywać połączenia bez Twojego udziału.",
        "permdesc_accessLocationExtraCommands": "Pozwala aplikacji na dostęp do dodatkowych poleceń dostawcy informacji o lokalizacji. Aplikacje z tym uprawnieniem mogą wpływać na działanie GPS-a lub innych źródeł lokalizacji.",
        "permdesc_accessNetworkConditions": "Pozwala aplikacji śledzić stan sieci. Nieprzeznaczone dla zwykłych aplikacji.",
        "permdesc_accessNetworkState": "Pozwala aplikacji na dostęp do informacji o połączeniach sieciowych – np. o dostępnych i połączonych sieciach.",
        "permdesc_accessNotifications": "Umożliwia aplikacji pobieranie, sprawdzanie i usuwanie powiadomień, także tych, które pochodzą z innych aplikacji.",
        "permdesc_accessWifiState": "Pozwala aplikacji na dostęp do informacji o połączeniach Wi-Fi – np. na sprawdzenie, czy obsługa Wi-Fi jest włączona, oraz odczytanie nazw podłączonych urządzeń Wi-Fi.",
        "permdesc_accessWimaxState": "Pozawala aplikacji określić, czy obsługa WiMAX jest włączona, oraz uzyskać informacje o wszystkich podłączonych sieciach WiMAX.",
        "permdesc_access_notification_policy": "Pozwala aplikacji na odczyt i zmianę konfiguracji trybu Nie przeszkadzać.",
        "permdesc_addVoicemail": "Pozwala aplikacji na dodawanie wiadomości do skrzynki odbiorczej poczty głosowej.",
        "permdesc_answerPhoneCalls": "Pozwala aplikacji na odbieranie przychodzących połączeń telefonicznych.",
        "permdesc_bindCarrierMessagingService": "Zezwala posiadaczowi na tworzenie powiązania z interfejsem najwyższego poziomu w usłudze przesyłania wiadomości przez operatora. Nie powinno być nigdy potrzebne dla zwykłych aplikacji.",
        "permdesc_bindCarrierServices": "Umożliwia właścicielowi powiązanie z usługami operatora. Nie powinno być nigdy potrzebne w normalnych aplikacjach.",
        "permdesc_bindConditionProviderService": "Zezwala na tworzenie powiązania z interfejsem najwyższego poziomu usługi dostawcy warunków. Nieprzeznaczone dla zwykłych aplikacji.",
        "permdesc_bindDreamService": "Zezwala na tworzenie powiązania z interfejsem najwyższego poziomu usługi wygaszacza ekranu. Nie powinno być nigdy potrzebne dla zwykłych aplikacji.",
        "permdesc_bindNotificationListenerService": "Zezwala na tworzenie powiązania z interfejsem najwyższego poziomu usługi odbiornika powiadomień. Nie powinno być nigdy potrzebne dla zwykłych aplikacji.",
        "permdesc_bind_connection_service": "Pozwala aplikacji na korzystanie z usług telefonii oraz wykonywanie i odbieranie połączeń.",
        "permdesc_bind_incall_service": "Zezwala aplikacji na kontrolowanie, kiedy i w jaki sposób użytkownik widzi ekran połączenia.",
        "permdesc_bluetooth": "Pozwala aplikacji na dostęp do konfiguracji Bluetooth na telefonie oraz na nawiązywanie i akceptowanie połączeń ze sparowanych urządzeń.",
        "permdesc_bluetoothAdmin": "Pozwala aplikacji na konfigurowanie lokalnego telefonu z funkcją Bluetooth oraz na wykrywanie urządzeń zdalnych i parowanie z nimi.",
        "permdesc_bodySensors": "Pozwala aplikacji na dostęp do danych z czujników, które monitorują Twój stan fizyczny (np. tętno).",
        "permdesc_broadcastSticky": "Pozwala aplikacji na wysyłanie transmisji trwałych, które pozostają aktywne po zakończeniu połączenia. Nadmierne używanie może spowolnić lub zdestabilizować telefon przez wymuszenie zbyt dużego użycia pamięci.",
        "permdesc_callPhone": "Pozwala aplikacji na dzwonienie pod numery telefonów bez Twojej wiedzy. Może to skutkować nieoczekiwanymi opłatami lub połączeniami. Aplikacja nie może dzwonić pod numery alarmowe. Złośliwe aplikacje mogą generować koszty, wykonując połączenia bez Twojego potwierdzenia.",
        "permdesc_camera": "Ta aplikacja może w dowolnym momencie robić zdjęcia i nagrywać filmy przy użyciu aparatu.",
        "permdesc_changeNetworkState": "Pozwala aplikacji na zmianę stanu łączności sieciowej.",
        "permdesc_changeTetherState": "Pozwala aplikacji na zmianę stanu łączności sieciowej objętej tetheringiem.",
        "permdesc_changeWifiMulticastState": "Pozwala aplikacji na odbieranie pakietów wysyłanych przez sieć Wi-Fi do wszystkich urządzeń, a nie tylko do Twojego telefonu, przy użyciu adresów połączeń grupowych. Powoduje większe zapotrzebowanie na energię niż w trybie innym niż grupowy.",
        "permdesc_changeWifiState": "Pozwala aplikacji na nawiązywanie i kończenie połączeń z punktami dostępowymi Wi-Fi oraz na zmienianie konfiguracji sieci Wi-Fi w urządzeniu.",
        "permdesc_changeWimaxState": "Pozwala aplikacji na nawiązywanie i kończenie połączeń z sieciami WiMAX w telefonie.",
        "permdesc_connection_manager": "Zezwala aplikacji na zarządzanie połączeniami telekomunikacyjnymi.",
        "permdesc_control_incall_experience": "Zezwala aplikacji na udostępnianie użytkownikowi funkcji połączenia.",
        "permdesc_createNetworkSockets": "Pozwala aplikacji na tworzenie gniazd sieciowych i używanie niestandardowych protokołów sieciowych. Przeglądarka i inne aplikacje zapewniają metody wysyłania danych do internetu, więc w ich przypadku to uprawnienie nie jest potrzebne.",
        "permdesc_disableKeyguard": "Pozwala aplikacji na wyłączenie blokady klawiatury i wszystkich związanych z tym haseł zabezpieczających. Na przykład telefon wyłącza blokadę klawiatury, gdy odbiera połączenie przychodzące, a następnie włącza ją ponownie po zakończeniu połączenia.",
        "permdesc_enableCarMode": "Pozwala aplikacji na włączanie trybu samochodowego.",
        "permdesc_expandStatusBar": "Pozwala aplikacji na rozwijanie lub zwijanie paska stanu.",
        "permdesc_foregroundService": "Zezwala na korzystanie przez aplikację z usług na pierwszym planie.",
        "permdesc_getAccounts": "Pozwala aplikacji na uzyskanie listy kont zapisanych w telefonie. Może ona obejmować wszystkie konta utworzone przez zainstalowane aplikacje.",
        "permdesc_getPackageSize": "Pozwala aplikacji na pobieranie własnego kodu, danych oraz rozmiarów pamięci podręcznej.",
        "permdesc_getTasks": "Pozwala aplikacji na pobieranie informacji o aktualnie i niedawno działających zadaniach. Dzięki temu aplikacja może uzyskać informacje o tym, które aplikacje są używane na urządzeniu.",
        "permdesc_handoverStatus": "Zezwala tej aplikacji na otrzymywanie informacji o aktualnych transmisjach Android Beam",
        "permdesc_install_shortcut": "Pozwala aplikacji dodawać skróty na ekranie głównym bez interwencji użytkownika.",
        "permdesc_invokeCarrierSetup": "Zezwala na wywoływanie aplikacji konfiguracyjnej udostępnionej przez operatora. Nieprzeznaczone dla zwykłych aplikacji.",
        "permdesc_killBackgroundProcesses": "Pozwala aplikacji na kończenie procesów innych aplikacji działających w tle. Może to spowodować przerwanie działania innych aplikacji.",
        "permdesc_manageFingerprint": "Zezwala aplikacji aktywować metody dodawania i usuwania szablonów odcisków palców.",
        "permdesc_manageNetworkPolicy": "Pozwala aplikacji na zarządzanie zasadami dotyczącymi sieci i definiowanie reguł aplikacji.",
        "permdesc_manageOwnCalls": "Zezwala aplikacji na przekazywanie połączeń przez system, by poprawić ich jakość.",
        "permdesc_manageProfileAndDeviceOwners": "Zezwala aplikacjom na ustawianie właścicieli profilu i urządzenia.",
        "permdesc_modifyAudioSettings": "Pozwala aplikacji na modyfikowanie globalnych ustawień dźwięku, takich jak głośność oraz urządzenie wyjściowe.",
        "permdesc_modifyNetworkAccounting": "Pozwala aplikacji na zmienianie sposobu rozliczania wykorzystania sieci przez aplikacje. Nieprzeznaczone dla zwykłych aplikacji.",
        "permdesc_nfc": "Pozwala aplikacji na komunikowanie się z tagami, kartami i czytnikami NFC (Near Field Communication).",
        "permdesc_persistentActivity": "Pozwala aplikacji na trwałe zapisywanie swoich fragmentów w pamięci. Może to zmniejszyć ilość pamięci dostępnej dla innych aplikacji i spowolnić działanie telefonu.",
        "permdesc_processOutgoingCalls": "Pozwala aplikacji na sprawdzenie numeru wybieranego w trakcie połączenia wychodzącego, a także umożliwia przerwanie połączenia lub przekierowanie go pod inny numer.",
        "permdesc_readCalendar": "Ta aplikacja może odczytywać wszystkie zapisane na telefonie wydarzenia z kalendarza i udostępniać oraz zapisywać dane kalendarza.",
        "permdesc_readCallLog": "Ta aplikacja może odczytywać historię połączeń.",
        "permdesc_readCellBroadcasts": "Zezwala aplikacji na odczyt komunikatów z sieci komórkowej odebranych na urządzeniu. Komunikaty alarmowe z sieci komórkowej są dostarczane w niektórych lokalizacjach w celu ostrzeżenia Cię o sytuacjach zagrożenia. Złośliwe aplikacje mogą wpływać na wydajność lub zakłócać działanie urządzenia po odebraniu komunikatu alarmowego z sieci komórkowej.",
        "permdesc_readContacts": "Pozwala aplikacji na odczyt danych o kontaktach zapisanych na telefonie, w tym informacji o częstotliwości rozmawiania, przesyłania e-maili i komunikowania się w inny sposób z poszczególnymi osobami. Aplikacje z tym uprawnieniem mogą zapisywać dane kontaktów, a złośliwe aplikacje mogą je udostępniać bez Twojej wiedzy.",
        "permdesc_readHistoryBookmarks": "Pozwala aplikacji na odczyt wszystkich URL-i odwiedzonych przez przeglądarkę oraz wszystkich zakładek w przeglądarce. Uwaga: to uprawnienie może nie być egzekwowane przez przeglądarki innych firm i aplikacje z możliwością przeglądania internetu.",
        "permdesc_readInstallSessions": "Pozwala aplikacji odczytywać sesje instalacji. Umożliwia to jej na poznanie szczegółów aktywnych instalacji pakietów.",
        "permdesc_readNetworkUsageHistory": "Pozwala aplikacji na odczyt historii wykorzystania określonych sieci przez poszczególne aplikacje.",
        "permdesc_readPhoneNumbers": "Zezwala aplikacji na dostęp do numerów telefonów na urządzeniu.",
        "permdesc_readPhoneState": "Pozwala aplikacji na dostęp do funkcji telefonicznych urządzenia. Aplikacja z tym uprawnieniem może odczytać numer telefonu i identyfikator urządzenia, sprawdzić, czy połączenie jest aktywne, oraz poznać numer, z którym jest nawiązane połączenie.",
        "permdesc_readSms": "Ta aplikacja może odczytywać wszystkie SMS-y zapisane na telefonie.",
        "permdesc_readSyncSettings": "Zezwala aplikacji na odczyt ustawień synchronizacji konta. Pozwala to na przykład określić, czy aplikacja Ludzie jest zsynchronizowana z kontem.",
        "permdesc_readSyncStats": "Pozwala aplikacji na czytanie statystyk synchronizacji konta, w tym historii zdarzeń synchronizacji oraz ilości zsynchronizowanych danych.",
        "permdesc_receiveBootCompleted": "Pozwala aplikacji na uruchamianie się natychmiast po zakończeniu rozruchu systemu. Może to spowodować wydłużenie czasu uruchamiania telefonu oraz spowolnienie jego pracy przez zawsze działającą aplikację.",
        "permdesc_receiveMms": "Pozwala aplikacji na odbieranie i przetwarzanie MMS-ów. To oznacza, że aplikacja będzie mogła bez Twojej wiedzy monitorować i usuwać wiadomości wysyłane do Twojego urządzenia.",
        "permdesc_receiveSms": "Pozwala aplikacji na odbieranie i przetwarzanie SMS-ów. To oznacza, że aplikacja będzie mogła bez Twojej wiedzy monitorować i usuwać wiadomości wysyłane do Twojego urządzenia.",
        "permdesc_receiveWapPush": "Pozwala aplikacji na odbieranie i przetwarzanie wiadomości WAP. To oznacza, że aplikacja będzie mogła bez Twojej wiedzy monitorować i usuwać wiadomości wysyłane do Twojego urządzenia.",
        "permdesc_recordAudio": "Ta aplikacja może w dowolnym momencie nagrać dźwięk przez mikrofon.",
        "permdesc_register_call_provider": "Zezwala aplikacji na rejestrowanie nowych połączeń telekomunikacyjnych.",
        "permdesc_register_sim_subscription": "Zezwala aplikacji na rejestrowanie nowych połączeń telekomunikacyjnych SIM.",
        "permdesc_removeDrmCertificates": "Zezwala aplikacji na usuwanie certyfikatów DRM. Nie powinno być nigdy potrzebne w zwykłych aplikacjach.",
        "permdesc_reorderTasks": "Pozwala aplikacji na przenoszenie zadań między tłem a pierwszym planem. Aplikacja może to robić bez Twojego udziału.",
        "permdesc_requestDeletePackages": "Zezwala aplikacji na żądanie usunięcia pakietów.",
        "permdesc_requestIgnoreBatteryOptimizations": "Zezwala aplikacji na proszenie o uprawnienia do ignorowania optymalizacji wykorzystania baterii w przypadku danej aplikacji.",
        "permdesc_requestInstallPackages": "Zezwala aplikacji żądanie instalacji pakietów.",
        "permdesc_route_media_output": "Pozwala aplikacji na kierowanie wyjściowych danych multimedialnych do innych urządzeń zewnętrznych.",
        "permdesc_runInBackground": "Ta aplikacja może działać w tle. Bateria może się szybciej rozładowywać.",
        "permdesc_sdcardRead": "Pozwala aplikacji na odczyt Twojej karty SD.",
        "permdesc_sdcardWrite": "Pozwala aplikacji na zapis na karcie SD.",
        "permdesc_sendSms": "Pozwala aplikacji na wysyłanie SMS-ów. Może to skutkować nieoczekiwanymi opłatami. Złośliwe aplikacje mogą generować koszty, wysyłając wiadomości bez Twojego potwierdzenia.",
        "permdesc_setAlarm": "Pozwala aplikacji na ustawienie alarmu w zainstalowanej aplikacji budzika. Funkcja ta może nie być zaimplementowana w niektórych aplikacjach tego typu.",
        "permdesc_setInputCalibration": "Zezwala aplikacji na modyfikowanie parametrów kalibracji ekranu dotykowego. Nieprzeznaczone dla zwykłych aplikacji.",
        "permdesc_setTimeZone": "Pozwala aplikacji na zmianę ustawienia strefy czasowej w telefonie.",
        "permdesc_setWallpaper": "Pozwala aplikacji na ustawianie tapety systemu.",
        "permdesc_setWallpaperHints": "Pozwala aplikacji na ustawianie wskazówek dotyczących rozmiaru tapety systemu.",
        "permdesc_sim_communication": "Pozwala aplikacji na wysyłanie poleceń do karty SIM. To bardzo niebezpieczne.",
        "permdesc_statusBar": "Pozwala aplikacji na wyłączanie paska stanu oraz dodawanie i usuwanie ikon systemowych.",
        "permdesc_statusBarService": "Pozwala aplikacji na występowanie na pasku stanu.",
        "permdesc_subscribedFeedsRead": "Pozwala aplikacji na pobieranie szczegółowych informacji na temat obecnie zsynchronizowanych kanałów.",
        "permdesc_systemAlertWindow": "Ta aplikacja może pojawić się nad innymi aplikacjami lub częściami ekranu. Może to przeszkadzać w jej zwykłym używaniu i zmieniać sposób wyświetlania innych aplikacji.",
        "permdesc_transmitIr": "Zezwala aplikacji na używanie nadajnika podczerwieni w telefonie.",
        "permdesc_uninstall_shortcut": "Pozwala aplikacji usuwać skróty z ekranu głównego bez interwencji użytkownika.",
        "permdesc_useBiometric": "Zezwala aplikacji na używanie sprzętu biometrycznego na potrzeby autoryzacji",
        "permdesc_useDataInBackground": "Ta aplikacja może przesyłać i odbierać dane w tle. Użycie danych może się zwiększyć.",
        "permdesc_useFingerprint": "Zezwala aplikacji na używanie czytnika linii papilarnych na potrzeby autoryzacji",
        "permdesc_use_sip": "Pozwala aplikacji na wykonywanie i odbieranie połączeń SIP.",
        "permdesc_vibrate": "Pozwala aplikacji na sterowanie wibracjami.",
        "permdesc_wakeLock": "Pozwala aplikacji na zapobieganie przechodzeniu telefonu w tryb uśpienia.",
        "permdesc_writeCalendar": "Ta aplikacja może dodawać, usuwać i zmieniać wydarzenia z kalendarza na telefonie. Ta aplikacja może wysyłać wiadomości wyglądające jak utworzone przez właścicieli kalendarza lub zmieniać wydarzenia bez wiedzy ich właścicieli.",
        "permdesc_writeCallLog": "Zezwala aplikacji na modyfikowanie rejestru połączeń telefonu, w tym danych o połączeniach przychodzących i wychodzących. Złośliwe aplikacje mogą wykorzystać tę możliwość, by wyczyścić lub zmodyfikować rejestr połączeń.",
        "permdesc_writeContacts": "Pozwala aplikacji na modyfikowanie danych o kontaktach zapisanych na telefonie, w tym informacji o częstotliwości rozmawiania, przesyłania e-maili i komunikowania się w inny sposób z poszczególnymi kontaktami. Aplikacje z tym uprawnieniem mogą usuwać dane kontaktów.",
        "permdesc_writeGeolocationPermissions": "Pozwala aplikacji na modyfikowanie uprawnień przeglądarki dotyczących lokalizacji geograficznej. Złośliwe aplikacje mogą używać tej opcji do wysyłania informacji o lokalizacji do dowolnych witryn.",
        "permdesc_writeHistoryBookmarks": "Pozwala aplikacji na modyfikowanie historii i zakładek przeglądarki zapisanych na telefonie. Aplikacja będzie mogła usunąć lub zmodyfikować dane przeglądarki. Uwaga: to uprawnienie może nie być egzekwowane przez przeglądarki innych firm oraz inne aplikacje z możliwością przeglądania internetu.",
        "permdesc_writeSettings": "Pozwala aplikacji na zmienianie ustawień systemu. Złośliwe aplikacje mogą uszkodzić konfigurację systemu.",
        "permdesc_writeSyncSettings": "Pozwala aplikacji na modyfikowanie ustawień synchronizacji z kontem. Tego uprawnienia można użyć np. do włączenia synchronizacji z kontem aplikacji Ludzie.",
        "permgroupdesc_calendar": "dostęp do kalendarza",
        "permgroupdesc_calllog": "odczytywanie i zapisywanie rejestru połączeń telefonicznych",
        "permgroupdesc_camera": "robienie zdjęć i nagrywanie filmów",
        "permgroupdesc_contacts": "dostęp do kontaktów",
        "permgroupdesc_location": "dostęp do informacji o lokalizacji tego urządzenia",
        "permgroupdesc_microphone": "nagrywanie dźwięku",
        "permgroupdesc_phone": "nawiązywanie połączeń telefonicznych i zarządzanie nimi",
        "permgroupdesc_sensors": "dostęp do danych czujnika podstawowych funkcji życiowych",
        "permgroupdesc_sms": "wysyłanie i wyświetlanie SMS‑ów",
        "permgroupdesc_storage": "dostęp do zdjęć, multimediów i plików na Twoim urządzeniu",
        "permgrouplab_calendar": "Kalendarz",
        "permgrouplab_calllog": "Rejestry połączeń",
        "permgrouplab_camera": "Aparat",
        "permgrouplab_contacts": "Kontakty",
        "permgrouplab_location": "Lokalizacja",
        "permgrouplab_microphone": "Mikrofon",
        "permgrouplab_phone": "Telefon",
        "permgrouplab_sensors": "Czujniki na ciele",
        "permgrouplab_sms": "SMS",
        "permgrouplab_storage": "Pamięć wewnętrzna",
        "permgrouprequest_calendar": "Zezwolić aplikacji <b>",
        "permgrouprequest_calllog": "Pozwolić aplikacji <b>",
        "permgrouprequest_camera": "Zezwolić aplikacji <b>",
        "permgrouprequest_contacts": "Zezwolić aplikacji <b>",
        "permgrouprequest_location": "Zezwolić aplikacji <b>",
        "permgrouprequest_microphone": "Zezwolić aplikacji <b>",
        "permgrouprequest_phone": "Zezwolić aplikacji <b>",
        "permgrouprequest_sensors": "Zezwolić aplikacji <b>",
        "permgrouprequest_sms": "Zezwolić aplikacji <b>",
        "permgrouprequest_storage": "Zezwolić aplikacji <b>",
        "permlab_acceptHandover": "kontynuuj połączenie w innej aplikacji",
        "permlab_accessCoarseLocation": "dostęp do przybliżonej lokalizacji (na podstawie sieci)",
        "permlab_accessDrmCertificates": "dostęp do certyfikatów DRM",
        "permlab_accessFineLocation": "dostęp do dokładnej lokalizacji (na podstawie GPS-a i sieci)",
        "permlab_accessImsCallService": "usługa telefoniczna z dostępem do komunikatora",
        "permlab_accessLocationExtraCommands": "dostęp do dodatkowych poleceń dostawcy informacji o lokalizacji",
        "permlab_accessNetworkConditions": "śledź stan sieci",
        "permlab_accessNetworkState": "wyświetlanie połączeń sieciowych",
        "permlab_accessNotifications": "dostęp do powiadomień",
        "permlab_accessWifiState": "wyświetlanie połączeń Wi-Fi",
        "permlab_accessWimaxState": "łączenie się i rozłączanie z siecią WiMAX",
        "permlab_access_notification_policy": "dostęp do trybu Nie przeszkadzać",
        "permlab_addVoicemail": "dodawanie poczty głosowej",
        "permlab_answerPhoneCalls": "odbieranie połączeń telefonicznych",
        "permlab_bindCarrierMessagingService": "powiąż z usługą przesyłania wiadomości przez operatora",
        "permlab_bindCarrierServices": "powiązanie z usługami operatora",
        "permlab_bindConditionProviderService": "powiąż z usługą dostawcy warunków",
        "permlab_bindDreamService": "powiąż z usługą wygaszacza ekranu",
        "permlab_bindNotificationListenerService": "utwórz połączenie z usługą odbiornika powiadomień",
        "permlab_bind_connection_service": "korzystanie z usług telefonii",
        "permlab_bind_incall_service": "interakcje z ekranem połączenia",
        "permlab_bluetooth": "parowanie z urządzeniami Bluetooth",
        "permlab_bluetoothAdmin": "uzyskiwanie dostępu do ustawień Bluetooth",
        "permlab_bodySensors": "dostęp do czujników ciała (np. monitorujących tętno)",
        "permlab_broadcastSticky": "wysyłanie transmisji trwałej",
        "permlab_callPhone": "bezpośrednie wybieranie numerów telefonów",
        "permlab_camera": "wykonywanie zdjęć i filmów wideo",
        "permlab_changeNetworkState": "zmienianie połączeń sieci",
        "permlab_changeTetherState": "zmiana łączności powiązanej",
        "permlab_changeWifiMulticastState": "zezwolenie na odbiór grupowych połączeń Wi-Fi",
        "permlab_changeWifiState": "łączenie się i rozłączanie z siecią Wi‑Fi",
        "permlab_changeWimaxState": "zmiana stanu WiMAX",
        "permlab_connection_manager": "zarządzanie połączeniami telekomunikacyjnymi",
        "permlab_control_incall_experience": "udostępnianie użytkownikowi funkcji połączenia",
        "permlab_createNetworkSockets": "pełny dostęp do sieci",
        "permlab_disableKeyguard": "wyłączanie blokady ekranu",
        "permlab_enableCarMode": "włączanie trybu samochodowego",
        "permlab_expandStatusBar": "rozwijanie/zwijanie paska stanu",
        "permlab_foregroundService": "uruchom usługę na pierwszym planie",
        "permlab_getAccounts": "znajdowanie kont na urządzeniu",
        "permlab_getPackageSize": "mierzenie rozmiaru pamięci aplikacji",
        "permlab_getTasks": "pobieranie uruchomionych aplikacji",
        "permlab_handoverStatus": "uzyskiwanie informacji o stanie transmisji Android Beam",
        "permlab_install_shortcut": "instalowanie skrótów",
        "permlab_invokeCarrierSetup": "wywoływanie aplikacji konfiguracyjnej udostępnionej przez operatora",
        "permlab_killBackgroundProcesses": "zamykanie innych aplikacji",
        "permlab_manageFingerprint": "zarządzanie czytnikiem linii papilarnych",
        "permlab_manageNetworkPolicy": "zarządzanie zasadami dotyczącymi sieci",
        "permlab_manageOwnCalls": "przekazywanie połączeń przez system",
        "permlab_manageProfileAndDeviceOwners": "zarządzanie właścicielami profilu i urządzenia",
        "permlab_modifyAudioSettings": "zmienianie ustawień audio",
        "permlab_modifyNetworkAccounting": "modyfikowanie sposobu naliczania użycia sieci",
        "permlab_nfc": "kontrolowanie łączności Near Field Communication",
        "permlab_persistentActivity": "sprawianie, że aplikacja jest cały czas uruchomiona",
        "permlab_processOutgoingCalls": "przekierowywanie połączeń wychodzących",
        "permlab_readCalendar": "Odczytywanie wydarzeń i informacji z kalendarza",
        "permlab_readCallLog": "czytanie rejestru połączeń",
        "permlab_readCellBroadcasts": "odczyt komunikatów z sieci komórkowej",
        "permlab_readContacts": "odczytywanie kontaktów",
        "permlab_readHistoryBookmarks": "odczytywanie zakładek internetowych i historii",
        "permlab_readInstallSessions": "odczytywanie sesji instalacji",
        "permlab_readNetworkUsageHistory": "odczyt historii wykorzystania sieci",
        "permlab_readPhoneNumbers": "odczytywanie numerów telefonów",
        "permlab_readPhoneState": "odczytywanie stanu i informacji o telefonie",
        "permlab_readSms": "odczytywanie wiadomości tekstowych (SMS i MMS)",
        "permlab_readSyncSettings": "czytanie ustawień synchronizacji",
        "permlab_readSyncStats": "czytanie statystyk dotyczących synchronizowania",
        "permlab_receiveBootCompleted": "uruchamianie podczas włączania urządzenia",
        "permlab_receiveMms": "odbieranie wiadomości tekstowych (MMS)",
        "permlab_receiveSms": "odbieranie wiadomości tekstowych (SMS)",
        "permlab_receiveWapPush": "odbieranie wiadomości tekstowych (WAP)",
        "permlab_recordAudio": "nagrywanie dźwięku",
        "permlab_register_call_provider": "rejestrowanie nowych połączeń telekomunikacyjnych",
        "permlab_register_sim_subscription": "rejestrowanie nowych połączeń telekomunikacyjnych SIM",
        "permlab_removeDrmCertificates": "usuwanie certyfikatów DRM",
        "permlab_reorderTasks": "zmienianie kolejności uruchomionych aplikacji",
        "permlab_requestDeletePackages": "żądanie usunięcia pakietów",
        "permlab_requestIgnoreBatteryOptimizations": "Prośba o ignorowanie optymalizacji wykorzystania baterii",
        "permlab_requestInstallPackages": "żądanie instalacji pakietów",
        "permlab_route_media_output": "kierowanie wyjścia multimediów",
        "permlab_runInBackground": "działanie w tle",
        "permlab_sdcardRead": "odczytywanie zawartości karty SD",
        "permlab_sdcardWrite": "modyfikowanie i usuwanie zawartości karty SD",
        "permlab_sendSms": "wysyłać i wyświetlać SMS-y",
        "permlab_setAlarm": "ustawianie alarmu",
        "permlab_setInputCalibration": "zmiana kalibracji urządzenia wejściwego",
        "permlab_setTimeZone": "ustawianie strefy czasowej",
        "permlab_setWallpaper": "ustawianie tapety",
        "permlab_setWallpaperHints": "dopasowywanie rozmiaru tapety",
        "permlab_sim_communication": "wysyłanie poleceń do karty SIM",
        "permlab_statusBar": "wyłączanie lub zmienianie paska stanu",
        "permlab_statusBarService": "działanie jako pasek stanu",
        "permlab_subscribedFeedsRead": "czytanie subskrybowanych źródeł",
        "permlab_systemAlertWindow": "Ta aplikacja może wyświetlać się nad innymi aplikacjami",
        "permlab_transmitIr": "przesyłanie w podczerwieni",
        "permlab_uninstall_shortcut": "odinstalowywanie skrótów",
        "permlab_useBiometric": "używanie sprzętu biometrycznego",
        "permlab_useDataInBackground": "transmisja danych w tle",
        "permlab_useFingerprint": "używanie czytnika linii papilarnych",
        "permlab_use_sip": "wykonywanie/odbieranie połączeń SIP",
        "permlab_vibrate": "sterowanie wibracjami",
        "permlab_wakeLock": "zapobieganie przejściu telefonu w stan uśpienia",
        "permlab_writeCalendar": "dodawanie i modyfikowanie wydarzeń w kalendarzu oraz wysyłanie e-maili do gości bez wiedzy właściciela",
        "permlab_writeCallLog": "zapisywanie rejestru połączeń",
        "permlab_writeContacts": "modyfikowanie kontaktów",
        "permlab_writeGeolocationPermissions": "modyfikowanie pozwoleń przeglądarki dotyczących lokalizacji geograficznej",
        "permlab_writeHistoryBookmarks": "zapisywanie zakładek internetowych i historii",
        "permlab_writeSettings": "modyfikowanie ustawień systemu",
        "permlab_writeSyncSettings": "włączanie i wyłączanie synchronizacji"
    },
    "sidebars": {
        "donate": {
            "bank_transfer_name": "Nazwa",
            "bitcoin_alt": "Złóż darowiznę za pomocą Bitcoin",
            "flattr_alt": "Złóż darowiznę za pomocą Flattr",
            "heading": "Złóż darowiznę",
            "hellotux": "👕 Koszulki 👕 z",
            "hellotux_alt": "HELLOTUX - promowanie wolnego oprogramowania",
            "hellotux_donation": "F-Droid otrzyma 3 € za sprzedaną koszulkę.",
            "liberapay_alt": "Złóż darowiznę za pomocą Liberapay",
            "litecoin_alt": "Złóż darowiznę za pomocą Litecoin",
            "paypal_alt": "Złóż darowiznę za pomocą PayPal",
            "powered_by_donations": "F-Droid jest zasilany twoimi darowiznami!",
            "via_bank_transfer": "Przelew bankowy"
        },
        "lang": {
            "change": "Zmień"
        },
        "last_updated": {
            "heading": "Ostatnia aktualizacja"
        },
        "latest_packages": {
            "heading": "Najnowsze aplikacje"
        },
        "news": {
            "heading": "Aktualności"
        },
        "search": {
            "heading": "Szukaj aplikacji",
            "noscript": "Niezbędne jest włączenie JavaScript",
            "search": "Szukaj"
        }
    }
}
